<?xml version="1.0" encoding="UTF-8"?>
<!-- Generator: Adobe Illustrator 25.4.1, SVG Export Plug-In . SVG Version: 6.00 Build 0)  -->
<svg xmlns="http://www.w3.org/2000/svg" xmlns:xlink="http://www.w3.org/1999/xlink" version="1.0" id="Layer_1" x="0px" y="0px" viewBox="0 0 210 70" style="enable-background:new 0 0 210 70;" xml:space="preserve">
<style type="text/css">
	.st0{fill:#FFFFFF;}
</style>
<g>
	<g id="XMLID_1_">
		<g>
			<path class="st0" d="M200.5,44v3.1c-0.6,0.2-1.4,0.3-2.1,0.4c-0.8,0.1-1.5,0.2-2.1,0.2c-2.1,0-3.7-0.6-4.8-1.7     c-1.1-1.1-1.7-3-1.7-5.5v-11h-2.4v-3h2.4v-5.9h3.5v5.9h7.2v3h-7.2V39c0,1.1,0,1.9,0.1,2.6c0,0.6,0.2,1.2,0.5,1.7     c0.3,0.5,0.6,0.9,1.1,1.1c0.5,0.2,1.2,0.3,2.2,0.3c0.6,0,1.2-0.1,1.8-0.2c0.6-0.2,1.1-0.3,1.3-0.4H200.5z"/>
			<path class="st0" d="M170.7,29c1.9-2,4.3-3,7.3-3c2.8,0,5,0.8,6.5,2.5c1.5,1.6,2.3,4,2.3,7v1.9h-15.3c0,1.3,0.2,2.4,0.6,3.3     c0.4,0.9,0.9,1.7,1.6,2.3c0.6,0.6,1.4,1,2.3,1.3c0.9,0.3,1.9,0.4,2.9,0.4c1.4,0,2.8-0.3,4.3-0.8c1.4-0.6,2.4-1.1,3.1-1.7h0.2v3.8     c-1.2,0.5-2.4,0.9-3.6,1.3c-1.2,0.3-2.5,0.5-3.9,0.5c-3.4,0-6.1-0.9-8.1-2.8c-1.9-1.9-2.9-4.5-2.9-7.9     C167.9,33.7,168.9,31,170.7,29z M183.4,34.7c0-1.8-0.5-3.3-1.4-4.3c-0.9-1-2.3-1.5-4.2-1.5c-1.9,0-3.4,0.6-4.5,1.7     c-1.1,1.1-1.7,2.5-1.9,4.1H183.4z"/>
			<path class="st0" d="M152.6,28.9c1.1-0.9,2.2-1.6,3.4-2.1c1.2-0.5,2.4-0.8,3.6-0.8c2.2,0,4,0.7,5.1,2c1.2,1.4,1.8,3.3,1.8,5.8     v13.5H163V35.5c0-1-0.1-1.8-0.2-2.7c-0.1-0.8-0.3-1.5-0.6-2c-0.3-0.5-0.8-0.9-1.3-1.2c-0.6-0.3-1.3-0.4-2.3-0.4c-1,0-2,0.2-3,0.7     c-1,0.5-2,1.1-3,1.8v15.5h-3.5V26.6h3.5V28.9z"/>
			<path class="st0" d="M146.6,26.5v6.4H146c-0.3-0.1-0.7-0.2-1.4-0.2c-0.6,0-1.2-0.1-1.6-0.1c-0.9,0-1.8,0.1-2.5,0.2     c-0.7,0.1-1.5,0.3-2.3,0.6v13.9h-6.7V26.5h6.7v3.1c1.5-1.3,2.7-2.1,3.8-2.5c1.1-0.4,2.1-0.6,3-0.6c0.2,0,0.5,0,0.8,0     C146.1,26.5,146.4,26.5,146.6,26.5z"/>
			<path class="st0" d="M110.8,31.9h-0.6v-5c0.7-0.2,1.9-0.4,3.4-0.7c1.6-0.2,3.2-0.4,4.8-0.4c3.8,0,6.5,0.6,8.2,1.8     c1.7,1.2,2.5,3,2.5,5.5v14.2h-6.6v-2.2c-0.4,0.3-0.8,0.6-1.3,1c-0.5,0.4-1,0.7-1.5,0.9c-0.6,0.3-1.3,0.5-2,0.7     c-0.7,0.1-1.5,0.2-2.3,0.2c-2,0-3.6-0.6-5-1.8c-1.3-1.2-2-2.8-2-4.7c0-1.5,0.3-2.8,1-3.7c0.7-1,1.7-1.7,2.9-2.3     c1.2-0.6,2.8-1,4.6-1.2c1.8-0.2,3.7-0.4,5.7-0.5v-0.1c0-1.2-0.5-2-1.4-2.4c-0.9-0.4-2.3-0.7-4.1-0.7c-1.1,0-2.3,0.2-3.5,0.6     C112.2,31.4,111.3,31.7,110.8,31.9z M122.5,41.9v-4.3c-0.9,0.1-1.9,0.2-2.9,0.3c-1,0.1-1.8,0.3-2.4,0.5c-0.7,0.2-1.2,0.5-1.5,0.9     c-0.3,0.4-0.5,0.9-0.5,1.6c0,0.4,0,0.8,0.1,1.1c0.1,0.3,0.3,0.5,0.6,0.8c0.3,0.2,0.6,0.4,1,0.5c0.4,0.1,1,0.2,1.9,0.2     c0.7,0,1.3-0.1,2-0.4C121.4,42.7,122,42.3,122.5,41.9z"/>
			<path class="st0" d="M94.6,30.4c-1.1,0-2.3,0.2-3.5,0.6c-1.3,0.4-2.1,0.7-2.7,0.9h-0.6v-5c0.7-0.2,1.9-0.4,3.4-0.7     c1.6-0.2,3.2-0.4,4.8-0.4c3.8,0,6.5,0.6,8.2,1.8c1.7,1.2,2.5,3,2.5,5.5v14.2h-6.6v-2.2c-0.4,0.3-0.8,0.6-1.3,1     c-0.5,0.4-1,0.7-1.5,0.9c-0.7,0.3-1.3,0.5-2,0.7c-0.7,0.1-1.5,0.2-2.3,0.2c-2,0-3.6-0.6-5-1.8c-1.3-1.2-2-2.8-2-4.7     c0-1.5,0.3-2.8,1-3.7c0.7-1,1.6-1.7,2.9-2.3c1.2-0.6,2.8-1,4.6-1.2c1.8-0.2,3.7-0.4,5.7-0.5v-0.1c0-1.2-0.5-2-1.4-2.4     C97.8,30.7,96.5,30.4,94.6,30.4z M100.2,41.9v-4.3c-0.9,0.1-1.9,0.2-2.9,0.3c-1,0.1-1.8,0.3-2.4,0.5c-0.7,0.2-1.2,0.5-1.5,0.9     c-0.4,0.4-0.5,0.9-0.5,1.6c0,0.4,0,0.8,0.1,1.1c0.1,0.3,0.3,0.5,0.6,0.8c0.3,0.2,0.6,0.4,1,0.5c0.4,0.1,1,0.2,1.9,0.2     c0.7,0,1.3-0.1,2-0.4C99,42.7,99.6,42.3,100.2,41.9z"/>
			<path class="st0" d="M57.5,8.4c-10.1-4.1-21-5.3-30.6-4l0,0c6.7-0.9,16.8-0.1,25.1,3.3c6.3,2.6,11.3,6.1,15.2,10.2L30.8,8.6     l2.3,4.5c-8.9,1.5-16.1,5.3-20.3,11.2C4,36.7,13.2,53.4,33.5,61.6c10.1,4.1,21,5.3,30.6,4v0c-6.7,0.9-16.8,0.1-25.1-3.3     c-6.3-2.6-11.3-6.1-14.7-10.1l35.7,10.2l-3-5.3c8.9-1.5,17-5.6,21.2-11.5C87,33.3,77.8,16.6,57.5,8.4z M56.1,56.1l-3.4-6.7h10.3     L56.1,56.1z M69.4,38.7c-0.5,0.7-1.2,1.5-2,2.2c-2.1,2.1-4.9,3.9-8.2,5.2c-2.2,1-4.6,1.7-6.8,2.2c0,0,0,0,0,0l-0.3,0.1l-2.8-5.1     l-25.5,7.5l-0.9,0.3l-0.1-0.2c-4.9-6.6-5.3-13.8-1.1-19.6c2.2-3,5.6-5.6,9.8-7.3c2.1-0.9,4.3-1.6,6.5-2.1l0.2,0l3.1,5.4l26.4-8.1     l0.6-0.2l0.1,0.2C73.2,25.8,73.6,32.9,69.4,38.7z"/>
		</g>
	</g>
</g>
</svg>